{
  "paragraphs": [
    {
      "text": "%spark\nimport org.apache.spark.sql.hive.HiveContext\nimport org.apache.spark.sql.SaveMode\nimport org.apache.spark.sql.types.{StructType, StructField, StringType, DoubleType, TimestampType}\n\nval hc \u003d new HiveContext(sc)\n\nval schema \u003d StructType(Array(\n        StructField(\"Meter_ID\", StringType, false),\n        StructField(\"Date_Time\", TimestampType, false),\n        StructField(\"kWh\", DoubleType, false)\n    ))\n\nhc.read\n    .format(\"com.databricks.spark.csv\")\n    .option(\"header\", \"true\")\n    .schema(schema)\n    .load(\"s3n://AKIAIOLLT3NF5AMAMZ4A:GLV30tCqh1C+jyZTTK5e8Zx4jAiqIPIUT2joiMRv@hydrosphere-iot/in/kWh_File_[1-20].csv.gz\")\n    .write\n    .mode(SaveMode.Append)\n    .saveAsTable(\"kwh_csv\")",
      "dateUpdated": "Apr 2, 2016 12:06:15 PM",
      "config": {
        "colWidth": 12.0,
        "graph": {
          "mode": "table",
          "height": 300.0,
          "optionOpen": false,
          "keys": [],
          "values": [],
          "groups": [],
          "scatter": {}
        },
        "enabled": true,
        "editorMode": "ace/mode/scala",
        "tableHide": false
      },
      "settings": {
        "params": {},
        "forms": {}
      },
      "jobName": "paragraph_1458827083505_-1706129701",
      "id": "20160324-134443_719021392",
      "result": {
        "code": "SUCCESS",
        "type": "TEXT",
        "msg": "import org.apache.spark.sql.hive.HiveContext\nimport org.apache.spark.sql.SaveMode\nimport org.apache.spark.sql.types.{StructType, StructField, StringType, DoubleType, TimestampType}\nhc: org.apache.spark.sql.hive.HiveContext \u003d org.apache.spark.sql.hive.HiveContext@1cd163f3\nschema: org.apache.spark.sql.types.StructType \u003d StructType(StructField(Meter_ID,StringType,false), StructField(Date_Time,TimestampType,false), StructField(kWh,DoubleType,false))\n"
      },
      "dateCreated": "Mar 24, 2016 1:44:43 PM",
      "dateStarted": "Apr 2, 2016 12:06:15 PM",
      "dateFinished": "Apr 2, 2016 12:51:27 PM",
      "status": "FINISHED",
      "progressUpdateIntervalMs": 500
    },
    {
      "text": "%sql\nSELECT * FROM kwh_csv LIMIT 10",
      "dateUpdated": "Apr 2, 2016 12:54:21 PM",
      "config": {
        "colWidth": 12.0,
        "graph": {
          "mode": "table",
          "height": 300.0,
          "optionOpen": false,
          "keys": [
            {
              "name": "Meter_ID",
              "index": 0.0,
              "aggr": "sum"
            }
          ],
          "values": [
            {
              "name": "Date_Time",
              "index": 1.0,
              "aggr": "sum"
            }
          ],
          "groups": [],
          "scatter": {
            "xAxis": {
              "name": "Meter_ID",
              "index": 0.0,
              "aggr": "sum"
            },
            "yAxis": {
              "name": "Date_Time",
              "index": 1.0,
              "aggr": "sum"
            }
          }
        },
        "enabled": true
      },
      "settings": {
        "params": {},
        "forms": {}
      },
      "jobName": "paragraph_1459578267195_-1205968579",
      "id": "20160402-062427_1434852590",
      "result": {
        "code": "SUCCESS",
        "type": "TABLE",
        "msg": "Meter_ID\tDate_Time\tkWh\nM0000001\t2015-01-01 00:00:00.0\t324.875266842\nM0000001\t2015-01-01 00:15:00.0\t707.401326906\nM0000001\t2015-01-01 00:30:00.0\t635.549239887\nM0000001\t2015-01-01 00:45:00.0\t701.726561512\nM0000001\t2015-01-01 01:00:00.0\t925.715772451\nM0000001\t2015-01-01 01:15:00.0\t1162.39753907\nM0000001\t2015-01-01 01:30:00.0\t1475.48380908\nM0000001\t2015-01-01 01:45:00.0\t1691.23787026\nM0000001\t2015-01-01 02:00:00.0\t1839.68655048\nM0000001\t2015-01-01 02:15:00.0\t1788.95182896\n"
      },
      "dateCreated": "Apr 2, 2016 6:24:27 AM",
      "dateStarted": "Apr 2, 2016 12:54:21 PM",
      "dateFinished": "Apr 2, 2016 12:54:24 PM",
      "status": "FINISHED",
      "progressUpdateIntervalMs": 500
    },
    {
      "text": "%sql\n\nSELECT MAX(Meter_ID) FROM kwh_csv",
      "dateUpdated": "Apr 6, 2016 9:39:26 AM",
      "config": {
        "colWidth": 12.0,
        "graph": {
          "mode": "table",
          "height": 300.0,
          "optionOpen": false,
          "keys": [],
          "values": [],
          "groups": [],
          "scatter": {}
        },
        "enabled": true,
        "editorMode": "ace/mode/sql"
      },
      "settings": {
        "params": {},
        "forms": {}
      },
      "jobName": "paragraph_1459601693955_-1091849974",
      "id": "20160402-125453_1765917321",
      "result": {
        "code": "SUCCESS",
        "type": "TABLE",
        "msg": "_c0\nM0100000\n"
      },
      "dateCreated": "Apr 2, 2016 12:54:53 PM",
      "dateStarted": "Apr 6, 2016 9:39:26 AM",
      "dateFinished": "Apr 6, 2016 9:39:42 AM",
      "status": "FINISHED",
      "progressUpdateIntervalMs": 500
    },
    {
      "config": {},
      "settings": {
        "params": {},
        "forms": {}
      },
      "jobName": "paragraph_1459935491589_1765764998",
      "id": "20160406-093811_215673850",
      "dateCreated": "Apr 6, 2016 9:38:11 AM",
      "status": "READY",
      "progressUpdateIntervalMs": 500
    }
  ],
  "name": "load kwh data",
  "id": "2BDNRDTN9",
  "angularObjects": {
    "2BDBKS34J": [],
    "2BEHMGCQ7": [],
    "2BEFSM39Z": [],
    "2BEE62U2F": [],
    "2BE8RPVTF": [],
    "2BDG9EDHP": [],
    "2BEWQ9GUB": [],
    "2BBJPD3JJ": [],
    "2BF6UU4YX": [],
    "2BDCBFCUZ": [],
    "2BBRSMB9Q": [],
    "2BBWTPGDG": [],
    "2BCJ6XVSF": [],
    "2BDBDDKQ5": []
  },
  "config": {
    "looknfeel": "default"
  },
  "info": {}
}